mc21_14TeV.601229.PhPy8EG_A14_ttbar_hdamp258p75_SingleLep.deriv.DAOD_PHYSVAL.e8481_s4038_r14362_r14367_p5608
mc21_14TeV.601229.PhPy8EG_A14_ttbar_hdamp258p75_SingleLep.deriv.DAOD_PHYSVAL.e8481_s4038_r14365_r14367_p5608
mc21_14TeV.800030.Py8EG_A14NNPDF23LO_flatpT_Zprime_Extended.deriv.DAOD_PHYSVAL.e8481_s4038_r14512_r14514_p5608
mc21_14TeV.800030.Py8EG_A14NNPDF23LO_flatpT_Zprime_Extended.deriv.DAOD_PHYSVAL.e8481_s4038_r14513_r14514_p5608
